[gd_scene load_steps=5 format=2]

[ext_resource path="res://assets/art/graveyard/grave5 - moonlit.png" type="Texture" id=1]
[ext_resource path="res://Grave5.gd" type="Script" id=2]
[ext_resource path="res://assets/art/graveyard/grave5.png" type="Texture" id=3]

[sub_resource type="RectangleShape2D" id=1]
extents = Vector2( 12, 4 )

[node name="Grave5" type="StaticBody2D"]
scale = Vector2( 2, 2 )
script = ExtResource( 2 )

[node name="CollisionShape2D" type="CollisionShape2D" parent="."]
shape = SubResource( 1 )

[node name="Grave5" type="Sprite" parent="."]
texture = ExtResource( 3 )

[node name="Grave5Moonlit" type="Sprite" parent="."]
texture = ExtResource( 1 )
